graph TD
    A[ci-update_revision] --> |Search for the latest stable commit in the revision project| B(revision pipeline)
    B --> C{met conditions?}
    C -->|no, take another| B
    C -->|yes| D(patch origin project)
    D --> E{test pipeline}
    E -->|failed| F(collate results)
    F --> G{reason?}
    F -->|retry*| D
    G -->|CI or unknown problem| H(issue to ci-uprev)
    G -->|TestFail| I(issue or WIP:MR to origin project)
    E -->|succeed| J{is merge day?}
    J -->|yes| K(launch MR to origin project)
